<?xml version="1.0" encoding="utf-8"?>
<!-- Generator: Adobe Illustrator 19.2.0, SVG Export Plug-In . SVG Version: 6.00 Build 0)  -->
<svg version="1.1" id="Layer_1" xmlns="http://www.w3.org/2000/svg" xmlns:xlink="http://www.w3.org/1999/xlink" x="0px" y="0px"
	 viewBox="0 0 55 55" style="enable-background:new 0 0 55 55;" xml:space="preserve">
<style type="text/css">
	.st0{fill:#4D4D4D;}
	.st1{fill:#6AA764;}
	.st2{display:none;opacity:0.15;fill:#16750D;}
</style>
<rect class="st0" width="55" height="55"/>
<polygon class="st1" points="46.8,17.9 42.9,25.8 38.1,23.1 38.1,42 16.9,42 16.9,23.1 12.1,25.8 8.2,17.9 16.9,13 21.5,13 
	21.4,13.2 22.2,16.8 23.2,17.6 25.9,17.6 25.9,20 26.9,21 28.2,21 29.2,20 29.2,17.6 31.8,17.6 32.8,16.8 33.6,13.2 33.5,13 
	38.1,13 "/>
<path class="st1" d="M30.9,10.9h-6.8L22.4,13l0.8,3.6h3.7V20h1.3v-3.4h3.6l0.8-3.6L30.9,10.9z M27.5,16.1l-2.6-3.4h5.1L27.5,16.1z"
	/>
<rect class="st2" width="55" height="55"/>
</svg>
