<?xml version="1.0" encoding="utf-8"?>
<!-- Generator: Adobe Illustrator 19.2.0, SVG Export Plug-In . SVG Version: 6.00 Build 0)  -->
<svg version="1.1" id="Layer_1" xmlns="http://www.w3.org/2000/svg" xmlns:xlink="http://www.w3.org/1999/xlink" x="0px" y="0px"
	 viewBox="0 0 55 55" style="enable-background:new 0 0 55 55;" xml:space="preserve">
<style type="text/css">
	.st0{fill:#4D4D4D;}
	.st1{fill:#6AA764;}
</style>
<rect class="st0" width="55" height="55"/>
<path class="st1" d="M46.8,17.9l-3.9,7.9l-4.8-2.7V42H16.9V23.1l-4.8,2.7l-3.9-7.9l8.7-4.9H21c1,2,3.6,3.4,6.5,3.4S33,15,34,13h4.1
	L46.8,17.9z"/>
</svg>
